<?xml version="1.0" encoding="UTF-8"?>
<svg width="49px" height="50px" viewBox="0 0 49 50" version="1.1" xmlns="http://www.w3.org/2000/svg" xmlns:xlink="http://www.w3.org/1999/xlink">
    <title>3589E69B-3626-4F3E-8902-D80D4BE77E2E</title>
    <g id="Page-1" stroke="none" stroke-width="1" fill="none" fill-rule="evenodd">
        <g id="10A---Team" transform="translate(-164.000000, -162.000000)" fill-rule="nonzero">
            <g id="Group-3" transform="translate(14.000000, 157.000000)">
                <g id="02" transform="translate(119.000000, 5.000000)">
                    <g id="brooklyn-nets-logo-copy" transform="translate(31.000000, 0.000000)">
                        <path d="M48.7100538,6.73400673 L48.7100538,5.31632111 L48.1488865,5.02096993 C47.7353949,4.81422411 38.0774115,0 24.6684683,0 L24.0482308,0 C10.6392876,0 0.981304271,4.81422411 0.597347746,5.02096993 L0.00664540138,5.31632111 L0.00664540138,6.70447162 C-0.0819599504,12.4047492 0.597347746,26.9064918 9.45788292,38.1593715 C16.6349164,47.3152578 23.3984583,49.4122512 24.1368362,49.618997 L24.4321874,49.7076023 L24.7275385,49.6485321 C25.0228897,49.5599268 31.904572,47.5515388 39.2883513,38.1889066 C48.1193391,26.9360269 48.8281942,12.4342844 48.7100538,6.73400673 Z" id="Path" fill="#000000"></path>
                        <path d="M24.4321874,48.2013114 C23.8710201,48.0536358 17.4914348,46.0747829 10.5802174,37.3028531 C1.51292408,25.7546222 1.48340126,10.6621773 1.5424715,7.08842814 L1.5424715,6.32051509 C1.55035485,6.32068258 1.55796493,6.31762467 1.56354057,6.31204904 C1.5691162,6.30647341 1.57217411,6.29886333 1.57200662,6.29097998 L1.57200662,6.26144486 L1.77875244,6.17283951 C2.28084943,5.96609369 3.34411365,5.49354412 4.90947487,4.93236458 C11.0620654,2.69062263 17.559038,1.54115825 24.1073011,1.5358261 L24.7275385,1.5358261 C31.2462994,1.54848067 37.7129144,2.69787901 43.8367594,4.93236458 C45.4021206,5.49353181 46.49492,5.96609369 46.9674818,6.17283951 L47.1742277,6.26144486 L47.1742277,6.29097998 L47.2037628,6.32051509 L47.2037628,7.08842814 C47.2923681,10.6621773 47.262833,25.7546222 38.1660169,37.3028531 C31.2547847,46.0747829 24.9638195,48.0536185 24.4321874,48.2013114 Z M38.6090437,37.6868096 C47.2923681,26.6702109 47.9716758,12.4638195 47.8535354,6.88168232 L47.8535354,5.84795322 L47.6763247,5.75934786 C47.2923681,5.55260204 37.8115955,0.8565184 24.6684683,0.8565184 L24.0186957,0.8565184 C10.8755686,0.8565184 1.42433103,5.55260204 1.01083939,5.75934786 L0.833628685,5.84795322 L0.833628685,6.82261209 C0.715488215,12.4342844 1.39479591,26.6406758 10.0781204,37.6572745 C17.0779432,46.5768799 23.575669,48.6443381 24.3140469,48.8215488 L24.4026523,48.8510987 L24.4912576,48.8215488 C24.8161439,48.7624786 31.4024627,46.8131608 38.6090437,37.6868096 Z" id="Shape" fill="#FFFFFF"></path>
                        <path d="M41.149049,13.4384784 C37.9297212,10.1010101 37.5752998,9.56937799 37.5752998,8.18122748 C37.5752998,6.82261209 38.1660021,6.64540138 38.7567045,6.64540138 C39.1272338,6.65557862 39.4947463,6.71517524 39.8495038,6.82261209 C42.1827781,7.50191978 42.1827781,8.77192982 42.1827781,9.71705358 L42.1827781,11.075669 C42.1828239,11.1761731 42.2401329,11.2678676 42.3304537,11.3119499 C42.921156,11.4891606 43.1869721,11.6073011 43.7776744,11.8140469 C43.8524857,11.86572 43.9541655,11.85301 44.0139553,11.7845118 C44.0899147,11.7441505 44.135887,11.663699 44.1320958,11.577766 L44.1320958,10.4554315 C44.1320958,9.03774588 44.1320958,6.64540138 39.9676443,5.43446157 C37.0436677,4.60747829 35.5373767,5.49354412 35.5373767,8.03355189 C35.5373767,10.1305452 36.8369219,11.3710201 38.9929854,13.4680135 L39.4064771,13.8815051 C41.9464971,16.3919901 42.4485941,17.1894382 42.4485941,18.7547995 C42.4485941,19.3455018 42.3599888,19.7294583 42.1827781,19.9657393 C42.0055674,20.2315553 41.7397513,20.3201754 41.2967246,20.3201754 C40.8658701,20.3102572 40.4384684,20.2406801 40.0267145,20.1134296 C38.9043801,19.7885433 38.1069319,19.3455166 37.6048349,18.8138845 C37.0141326,18.1641119 37.0141326,17.6029447 37.0141326,16.4806102 L37.0141326,15.2992055 C37.0141326,15.181065 36.9550623,15.0629246 36.8369219,15.0629246 C36.1871493,14.915249 35.8917981,14.8561787 35.3010958,14.7380506 C35.2265673,14.7147388 35.1453132,14.7379543 35.0943499,14.7971208 C35.0474393,14.8572179 35.016911,14.9284506 35.0057446,15.0038666 L35.0057446,17.130368 C35.0057446,19.1092209 36.6597111,20.645047 39.7313633,21.5311005 C40.4666933,21.7691326 41.2328483,21.8984834 42.0055674,21.915057 C44.3979119,21.915057 44.3979119,19.9362041 44.3979119,19.1092209 C44.4274494,16.9236099 43.3051101,15.6536121 41.149049,13.4384784 Z M34.6513232,4.37119735 C31.5710687,3.81155244 28.4487645,3.51513115 25.3182261,3.48514384 C25.2437338,3.46779634 25.1655638,3.49013066 25.1114803,3.5442141 C25.0573969,3.59829754 25.0350626,3.6764676 25.0524101,3.75095989 L25.0524101,4.69608364 C25.0619597,4.83874718 25.1755626,4.95235004 25.3182261,4.9618997 C26.7654469,4.9618997 27.5333599,5.02096993 28.9215104,5.10957529 L28.9215104,19.1092209 C28.9171617,19.2465214 29.0209279,19.3632583 29.1577914,19.3750369 C29.7780288,19.4341072 30.07338,19.4341072 30.6936175,19.5227398 L30.7231526,19.5227398 C30.7852717,19.5238484 30.8425978,19.4894527 30.8708282,19.4341072 C30.9334279,19.3983392 30.968379,19.3284371 30.9594335,19.2568964 L30.9594335,5.31632111 C32.347584,5.46399669 33.1450322,5.58213716 34.5922529,5.84795322 C34.6662723,5.85642905 34.7406299,5.83518401 34.7989988,5.78888298 C34.8574112,5.7362873 34.889802,5.66070873 34.8876041,5.58213716 L34.8876041,4.63701341 C34.8610822,4.513012 34.771356,4.41206647 34.6513207,4.37118505 L34.6513232,4.37119735 Z M23.7528649,3.51465144 C21.119529,3.54419551 18.492615,3.78121031 15.8965237,4.22352177 C15.8335848,4.22261611 15.7729582,4.24721899 15.7284491,4.2917281 C15.68394,4.33623721 15.6593371,4.39686383 15.6602186,4.45980271 L15.6602186,19.640853 C15.671345,19.7074701 15.7022158,19.7692117 15.7488481,19.8180637 C15.8027324,19.8508128 15.8633019,19.8710026 15.9260588,19.8771339 L15.955594,19.8771339 C18.5245175,19.4591979 21.1208724,19.2321407 23.7233446,19.1978262 C23.8597701,19.1851783 23.9630595,19.0689777 23.9596255,18.9320102 L23.9596255,17.9868864 C23.9551544,17.9182958 23.92321,17.854407 23.8710201,17.8096757 C23.8352498,17.7470784 23.7653495,17.7121283 23.6938094,17.7210704 C21.6783102,17.7467632 19.6662261,17.8947106 17.6686455,18.1640971 L17.6686455,12.1684683 C19.3038027,11.9390578 20.9504805,11.8010089 22.6010101,11.7549644 C22.6653003,11.7608502 22.7288803,11.737854 22.7745305,11.6922038 C22.8201807,11.6465537 22.8431769,11.5829736 22.837291,11.5186834 L22.837291,10.573572 C22.831159,10.5108152 22.8109692,10.4502459 22.7782208,10.3963613 C22.7310802,10.3509563 22.6659656,10.3292514 22.6010101,10.337291 C20.9510381,10.3736622 19.3043696,10.501846 17.6686455,10.7212476 L17.6686455,5.40492646 C19.6746964,5.12198065 21.6974737,4.97397255 23.7233446,4.9618997 C23.7906107,4.96879991 23.8576848,4.94715072 23.9082239,4.902227 C23.9587631,4.85730329 23.9881269,4.79323001 23.9891606,4.72561876 L23.9891606,3.78049501 C23.9980986,3.70895568 23.9631495,3.63905754 23.9005553,3.60328431 C23.872323,3.54793471 23.8149909,3.51353835 23.7528674,3.51465144 L23.7528649,3.51465144 Z M13.6813899,4.60747829 C13.0906876,4.72561876 12.7953364,4.784689 12.2046341,4.93236458 C12.0838934,4.94369741 11.9930933,5.04746903 11.9978882,5.16864552 L12.1160287,16.1852319 C12.1160287,16.9236099 12.1455638,17.6029176 12.1750989,18.223155 C10.6983431,14.3835898 9.13298187,10.4258841 7.53808553,6.43864326 C7.48788331,6.3248687 7.36387534,6.26286471 7.24273436,6.29096767 C6.35668084,6.58631884 5.91365408,6.73399443 5.05713568,7.08841583 C4.95423641,7.12204744 4.88339952,7.21649662 4.87992498,7.32469677 L4.87992498,22.5057593 C4.8818219,22.582674 4.92779686,22.6516365 4.99806545,22.6829701 C5.02760057,22.7420403 5.0866708,22.7420403 5.14574104,22.7420403 C5.17821884,22.7460606 5.21077636,22.7352081 5.23434639,22.7125052 C5.7659785,22.5057593 6.06132967,22.417154 6.59296178,22.2104082 C6.70279118,22.1870194 6.77847153,22.0861123 6.77017249,21.9741272 C6.74063737,18.400378 6.74063737,14.7970937 6.71110225,11.2233446 C6.71110225,10.2782208 6.71110225,9.74658869 6.68156713,9.067281 C8.21739323,13.0545218 9.75321933,16.9236222 11.2004401,20.6155118 C11.2167571,20.6764984 11.2584214,20.7275715 11.3148881,20.7558048 C11.3713547,20.7840381 11.4372118,20.7867258 11.4957912,20.7631874 C12.4113799,20.5564416 12.8839418,20.4383011 13.7995304,20.2610904 C13.9153493,20.2405969 14.0013382,20.1423239 14.0062762,20.0248095 L14.0062762,4.84375923 C14.0028175,4.76637297 13.9713239,4.69288784 13.9176709,4.63701341 C13.845235,4.59841034 13.7611018,4.58789358 13.6813924,4.60747829 L13.6813899,4.60747829 Z" id="Shape" fill="#FFFFFF"></path>
                        <path d="M32.8792137,38.9568197 C32.7315381,39.0749601 32.5838625,39.1635655 32.4066518,39.2817059 C31.9931602,39.5770571 31.5501334,39.8133381 31.1366418,40.0791541 C30.9366484,40.2177389 30.7296265,40.3458954 30.5164043,40.4631106 C29.0101133,41.4082344 27.178936,42.4419635 25.2591534,43.0326658 C24.7356731,43.1924126 24.2030853,43.3206282 23.6642571,43.4166224 C23.2161065,43.4986271 22.7612205,43.5381824 22.3056417,43.5347628 L22.2170363,43.5347628 C21.6626018,43.5308838 21.1094216,43.4814927 20.5630698,43.3870872 C22.6630235,44.1171598 24.928259,44.229909 27.0903307,43.7119735 C28.3399169,43.4013086 29.5281464,42.8820822 30.6050096,42.1761474 C31.6580532,41.3201534 32.4635336,40.1985983 32.9382839,38.9272845 C32.9087513,38.9272845 32.8792137,38.9272845 32.8792137,38.9568197 Z M22.6009929,42.9735956 C23.8388582,42.8271122 25.0397852,42.4568263 26.1452069,41.8807963 C26.331739,41.8001491 26.5098198,41.7012153 26.6768391,41.5854451 C26.8245146,41.5263749 26.9721902,41.4377695 27.1198658,41.3786993 C28.1535949,40.8470672 29.2463943,40.2563796 30.5754745,39.5180017 C31.0775715,39.2817207 31.5205983,39.0159047 31.9931602,38.7500886 L32.5247923,38.4547374 C32.7315381,38.336597 32.9382839,38.2479916 33.1154946,38.1298511 C33.1450297,38.100316 33.1450297,38.100316 33.1745648,38.100316 C33.3547855,37.4332778 33.4734232,36.7511107 33.5289863,36.0623929 C32.199906,36.7121655 30.2210531,37.3028679 27.3266116,37.8935702 C23.634722,38.6319481 20.0019026,38.3070618 16.7530397,36.9189113 C14.567441,36.0033227 13.5337119,34.7333127 13.1202202,34.054005 C13.1775488,34.5513767 13.2663319,35.0446167 13.3860363,35.5307608 C14.0936676,38.2501478 15.77532,40.6149767 18.111655,42.176177 L18.111655,42.1466419 L18.4070062,42.3238526 C18.7166173,42.4952265 19.0432742,42.6338083 19.3816651,42.7373442 C20.0753659,42.9243442 20.789788,43.0235695 21.5081935,43.0326954 C21.8626174,43.0326954 22.2170388,43.0031307 22.6009953,42.9735956 L22.6009929,42.9735956 Z M34.1787588,38.1889066 C34.1492237,38.1593715 34.1492237,38.1593715 34.1196886,38.1593715 C34.025084,38.1662942 33.9337099,38.1967523 33.8538725,38.2479768 C33.8243374,38.277512 33.7948023,38.3070471 33.7652672,38.3070471 C33.7357321,38.3365822 33.706197,38.3365822 33.6766618,38.3661173 C33.4016694,39.1081294 33.0345269,39.8126459 32.5838625,40.4631106 C33.2179181,39.8081811 33.7639866,39.0734706 34.208294,38.277512 L34.1787588,38.277512 L34.1787588,38.1889066 Z M34.6217856,35.3830705 C34.5627154,35.4421407 34.5331802,35.4421407 34.5036451,35.5012109 C34.4401929,35.533585 34.3807229,35.5732317 34.3264344,35.6193514 C34.2628664,36.3309646 34.124266,37.0338664 33.9129428,37.7163447 C34.2673642,37.5982043 34.4150398,37.7458799 34.4445749,37.8344852 C34.4445749,37.8640203 34.4445749,37.8640203 34.47411,37.8640203 C35.0684624,36.7114114 35.4487338,35.4605186 35.5964445,34.1721307 C35.3872021,34.6565824 35.0503284,35.0751183 34.6217856,35.3830582 L34.6217856,35.3830705 Z M34.3264344,34.7923681 C34.3559695,34.7628502 34.3855047,34.7628502 34.4150398,34.7332979 C35.0243589,34.2560537 35.4601616,33.5919795 35.6555158,32.8430676 C35.6559351,31.9257721 35.536791,31.0123343 35.3010933,30.1258368 C35.3002277,30.0795635 35.2785224,30.0361529 35.2420231,30.0076964 C35.1315289,30.8971825 34.7010958,31.7160552 34.0310832,32.3114355 C34.2310918,33.1231306 34.3302909,33.9563835 34.3264369,34.7923681 L34.3264344,34.7923681 Z M17.4028122,36.1509835 C20.0905079,37.037037 21.5672638,37.3028654 23.5165815,37.3028654 C24.2254243,37.3028654 25.0524076,37.2733303 26.0566016,37.1847249 C28.921508,36.948444 31.9340899,36.0033202 33.5585214,35.2058721 C33.5530364,34.4126548 33.4739368,33.6216588 33.3222404,32.8430627 C32.8132255,33.1416764 32.2281751,33.285367 31.6387388,33.2565371 C30.9594311,33.2565371 30.1619829,33.1383966 28.8329026,32.8135103 C27.2675414,32.4295538 25.0524076,31.1004735 23.0735547,29.948604 C22.0102905,29.2988314 20.9765614,28.708129 20.1495781,28.2946374 C16.9302504,26.6997411 15.0990731,26.936022 14.6265112,27.0246274 C13.4591142,28.9713444 12.9130464,31.2277379 13.06115,33.492818 C13.2974482,33.7881741 14.3902327,35.1467895 17.4028147,36.1509688 L17.4028122,36.1509835 Z M19.0567788,26.9655744 C20.4302239,27.5745863 21.7709704,28.254818 23.0735547,29.0034975 C25.4658992,30.2735075 27.917314,31.6025878 29.6008157,32.0160794 C31.0775715,32.4000359 32.2885113,32.3409657 33.1450297,31.9274741 L33.1450297,31.8684038 C33.1154946,31.8093336 33.1154946,31.7502634 33.0859595,31.6911931 C32.3771167,28.649076 28.5670866,21.9741395 21.9512203,21.9741395 C21.6854042,21.9741395 21.4195882,22.0036747 21.124237,22.0036747 C18.6553795,22.7043291 16.5054308,24.2385158 15.0400029,26.3453369 C15.3570216,26.2536479 15.6847108,26.203998 16.0146617,26.1976613 C16.871185,26.2271841 17.8753766,26.4930002 19.0567813,26.9655621 L19.0567788,26.9655744 Z M33.8243374,31.4549122 C33.9727539,31.272072 34.1014527,31.0740739 34.208294,30.8642098 C35.0057421,29.3283837 34.3264344,27.6153469 34.0015481,27.0246446 C31.7406049,23.3245606 27.5673986,21.2379574 23.2507655,21.6492533 C27.7696409,21.8855219 32.1408357,25.9318329 33.8243399,31.4549122 L33.8243374,31.4549122 Z" id="Shape" fill="#FFFFFF"></path>
                        <path d="M28.8033847,35.0877193 C28.8033847,34.260736 28.8033847,33.0497962 27.8287259,32.1046725 C27.9468992,31.9224592 28.0365389,31.72326 28.0945419,31.5139701 C28.2317362,31.0646145 28.2916576,30.5952305 28.2717526,30.1258196 L28.2717526,27.8220805 C28.2422175,26.9655621 28.124077,26.0795085 27.4152342,25.3115955 C26.7949968,24.6027527 25.849873,24.2187961 24.7275385,24.2187961 L21.6558863,24.2187961 C21.3130047,24.225864 20.9856596,24.3631377 20.7402977,24.6027527 C20.50968,24.839644 20.3822506,25.1582175 20.385801,25.4888062 L20.4154114,40.3745053 C20.4056672,40.8250628 20.6438207,41.2446666 21.0356489,41.4673046 C21.2388298,41.597235 21.4738417,41.6687603 21.7149566,41.6740504 L24.845679,41.6740504 C25.8697744,41.7104188 26.8704996,41.3627984 27.6515152,40.6993916 L27.6810503,40.6993916 C28.7147794,39.7838029 28.8033847,38.6910036 28.8329198,37.6572745 L28.8329198,37.6277394 L28.8033847,35.0877193 Z" id="Path" fill="#FFFFFF"></path>
                        <path d="M24.668456,31.4253648 C24.4321751,31.5139701 24.2844995,31.5139701 23.7233323,31.5435052 L23.1326299,31.5435052 C23.0440246,31.5435052 23.0144894,31.5139701 23.0144894,31.4253648 L23.0144894,26.6406758 C23.0113652,26.6084863 23.0228045,26.576587 23.0456728,26.5537187 C23.0685412,26.5308504 23.1004404,26.5194111 23.1326299,26.5225353 L24.0777537,26.5225353 C24.492091,26.494309 24.9071925,26.56518 25.2886935,26.7292811 C25.4169619,26.8116923 25.5113099,26.9374897 25.5545095,27.0837025 C25.6294952,27.343013 25.6692321,27.6112376 25.67265,27.8811507 L25.67265,29.8895387 C25.6431272,30.3325654 25.6135773,31.1300136 24.668456,31.4253648 Z M25.7612553,39.1340181 C25.5249744,39.3112288 25.2296232,39.3998341 24.5207804,39.4293692 L23.1917001,39.4293692 C23.1026081,39.4200365 23.0371385,39.341473 23.0440246,39.2521585 L23.0440246,33.3156123 C23.0440246,33.2860771 23.0440246,33.2270069 23.1326299,33.2270069 L23.7528674,33.2270069 C24.4026399,33.256542 25.0819476,33.2860895 25.5249744,33.5814431 C25.77809,33.7365957 25.966827,33.9777553 26.0566065,34.2607385 C26.1412292,34.5684598 26.1810191,34.8867791 26.174747,35.2058622 L26.174747,37.3914609 C26.2042796,38.3661025 26.1452119,38.8386792 25.7612553,39.1340156 L25.7612553,39.1340181 Z M28.0059243,35.2058475 C28.0059243,34.3493291 28.0059243,33.3451351 27.1494059,32.6362923 C26.9548081,32.4742879 26.735414,32.3446459 26.4996333,32.2523357 C26.8956287,31.9839063 27.1875408,31.58774 27.3266166,31.1300013 C27.4360571,30.7663043 27.4859268,30.3872948 27.4742921,30.0076668 L27.4742921,27.6448574 C27.444757,26.9950849 27.3856868,26.2271718 26.8245196,25.6364695 C26.3814928,25.1343725 25.6431149,24.8685564 24.7570614,24.8685564 L21.5377336,24.8685564 C21.4364755,24.8688899 21.3400184,24.9117598 21.2719175,24.9866969 C21.2122595,25.062243 21.1809134,25.1562812 21.1833122,25.2525129 L21.1833122,40.7584495 C21.1930753,40.887142 21.2576086,41.005453 21.3605229,41.0833358 C21.4232695,41.1203431 21.4944423,41.1406782 21.5672687,41.142406 L24.8161316,41.142406 C25.6518972,41.175245 26.4709616,40.9022236 27.1198707,40.374493 C27.8877838,39.6656502 27.9763891,38.8386669 28.0059243,37.8935431 L28.0059243,35.2058475 Z" id="Shape" fill="#000000"></path>
                    </g>
                </g>
            </g>
        </g>
    </g>
</svg>