<?xml version="1.0" encoding="UTF-8"?>
<svg width="44px" height="44px" viewBox="0 0 44 44" version="1.1" xmlns="http://www.w3.org/2000/svg" xmlns:xlink="http://www.w3.org/1999/xlink">
    <title>A7AA8DC1-CDA3-48B8-A6E1-4CF7E8673002</title>
    <g id="Page-1" stroke="none" stroke-width="1" fill="none" fill-rule="evenodd">
        <g id="13A---Transfer-Points" transform="translate(-65.000000, -299.000000)">
            <g id="ic_minus" transform="translate(65.000000, 299.000000)">
                <circle id="Oval" fill="#EFEDED" opacity="0.049999997" cx="22" cy="22" r="22"></circle>
                <rect id="Global-Elements-/-3D-Touch-Icons-/-Add" fill="#FFFFFF" x="13" y="21" width="18" height="2" rx="1"></rect>
            </g>
        </g>
    </g>
</svg>