<?xml version="1.0" encoding="UTF-8"?>
<svg width="18px" height="18px" viewBox="0 0 18 18" version="1.1" xmlns="http://www.w3.org/2000/svg" xmlns:xlink="http://www.w3.org/1999/xlink">
    <title>ECAF8EB9-8A71-4DC5-ABC1-4969581E70EE</title>
    <g id="Page-1" stroke="none" stroke-width="1" fill="none" fill-rule="evenodd">
        <g id="08A---My-Wallet" transform="translate(-34.000000, -159.000000)" fill-rule="nonzero">
            <g id="Mask" transform="translate(14.000000, 111.000000)">
                <g id="ic_green" transform="translate(20.000000, 48.000000)">
                    <path d="M9.03515625,0 C4.08874219,0 0,4.01835938 0,8.96484375 C0,13.9113281 4.08874219,18 9.03515625,18 C13.9815703,18 18,13.9113281 18,8.96484375 C18,4.01835938 13.9815703,0 9.03515625,0 Z" id="Path" fill="#4DEF00"></path>
                    <g id="Group-2" transform="translate(2.000000, 1.000000)">
                        <path d="M7.04081633,0 C7,2 7,14 7.04081633,16 C11.4245714,16 15,12.342898 15,7.95918367 C15,3.57546939 11.4245714,0 7.04081633,0 Z" id="Path" fill="#46D801"></path>
                        <path d="M7.03571429,1 C3.19992857,1 0,4.12853571 0,7.96428571 C0,11.8000357 3.19992857,15 7.03571429,15 C10.8715,15 14,11.8000357 14,7.96428571 C14,4.12853571 10.8715,1 7.03571429,1 Z" id="Path" fill="#46D801"></path>
                        <path d="M7.03571429,1 C7,3 7,12 7.03571429,15 C10.8715,15 14,11.8000357 14,7.96428571 C14,4.12853571 10.8715,1 7.03571429,1 Z" id="Path" fill="#3DB803"></path>
                    </g>
                </g>
            </g>
        </g>
    </g>
</svg>