<?xml version="1.0" encoding="UTF-8"?>
<svg width="28px" height="28px" viewBox="0 0 28 28" version="1.1" xmlns="http://www.w3.org/2000/svg" xmlns:xlink="http://www.w3.org/1999/xlink">
    <title>1704C6F1-F47A-4423-B449-BEA688A5DE0F</title>
    <defs>
        <path d="M7.49980837,0 C7.64980837,0 7.79980837,0.1 7.89980837,0.2 L7.89980837,0.2 L8.74980837,1.5 L10.4998084,1.5 C11.3498084,1.5 11.9998084,2.15 11.9998084,3 L11.9998084,3 L11.9998084,8.5 C11.9998084,9.35 11.3498084,10 10.4998084,10 L10.4998084,10 L1.49980837,10 C0.649808368,10 -0.000191631829,9.35 -0.000191631829,8.5 L-0.000191631829,8.5 L-0.000191631829,3 C-0.000191631829,2.15 0.649808368,1.5 1.49980837,1.5 L1.49980837,1.5 L3.24980837,1.5 L4.09980837,0.2 C4.19980837,0.1 4.34980837,0 4.49980837,0 L4.49980837,0 Z M5.99980837,3 C4.59980837,3 3.49980837,4.1 3.49980837,5.5 C3.49980837,6.9 4.59980837,8 5.99980837,8 C7.39980837,8 8.49980837,6.9 8.49980837,5.5 C8.49980837,4.1 7.39980837,3 5.99980837,3 Z M5.99980837,4 C6.84980837,4 7.49980837,4.65 7.49980837,5.5 C7.49980837,6.35 6.84980837,7 5.99980837,7 C5.14980837,7 4.49980837,6.35 4.49980837,5.5 C4.49980837,4.65 5.14980837,4 5.99980837,4 Z" id="path-1"></path>
    </defs>
    <g id="Page-1" stroke="none" stroke-width="1" fill="none" fill-rule="evenodd">
        <g id="02---Profile-Edit1" transform="translate(-195.000000, -186.000000)">
            <g id="01" transform="translate(0.000000, 140.000000)">
                <g id="ic_avatar" transform="translate(134.000000, 48.000000)">
                    <g id="ic_profile-camera" transform="translate(63.000000, 0.000000)">
                        <rect id="Mask" stroke="transparent" stroke-width="2" fill="#0055FF" x="-1" y="-1" width="26" height="26" rx="13"></rect>
                        <g id="Icon-/-toolkit_ta" transform="translate(6.000000, 7.000000)">
                            <mask id="mask-2" fill="white">
                                <use xlink:href="#path-1"></use>
                            </mask>
                            <use id="Combined-Shape" fill="#000000" fill-rule="nonzero" xlink:href="#path-1"></use>
                            <g id="Icon-Color" mask="url(#mask-2)" fill="#FFFFFF">
                                <g transform="translate(-0.000192, -1.000000)" id="Rectangle">
                                    <rect x="0" y="0" width="12" height="12"></rect>
                                </g>
                            </g>
                        </g>
                    </g>
                </g>
            </g>
        </g>
    </g>
</svg>