<?xml version="1.0" encoding="UTF-8"?>
<svg width="200px" height="200px" viewBox="0 0 200 200" version="1.1" xmlns="http://www.w3.org/2000/svg" xmlns:xlink="http://www.w3.org/1999/xlink">
    <title>EA4F5895-C911-42CD-905C-3D7A71B1600E</title>
    <defs>
        <circle id="path-1" cx="100" cy="100" r="100"></circle>
        <linearGradient x1="50%" y1="0%" x2="50%" y2="142.988886%" id="linearGradient-3">
            <stop stop-color="#4157F2" offset="0%"></stop>
            <stop stop-color="#79F9EF" offset="100%"></stop>
        </linearGradient>
    </defs>
    <g id="Page-1" stroke="none" stroke-width="1" fill="none" fill-rule="evenodd">
        <g id="14A---My-Points-Redeem" transform="translate(-88.000000, -309.000000)">
            <g id="ic_logo-on-dark" transform="translate(88.000000, 309.000000)">
                <g id="Group" opacity="0.049999997">
                    <mask id="mask-2" fill="white">
                        <use xlink:href="#path-1"></use>
                    </mask>
                    <use id="Mask" fill="#FFFFFF" fill-rule="nonzero" style="mix-blend-mode: multiply;" xlink:href="#path-1"></use>
                    <rect id="Rectangle" fill="#000000" fill-rule="nonzero" mask="url(#mask-2)" x="2" y="-92.6666667" width="196.409755" height="385.856368"></rect>
                    <path d="M283.888038,86.100539 L282.340282,83.730267 L254.777054,98.5793235 C250.770452,95.372485 236.116167,83.6406349 234.875767,82.7841501 C233.635367,81.9276653 200.847091,62.2783102 195.534227,59.101349 C205.830645,45.2880416 206.313633,27.9591628 206.335587,27.0130459 L206.335587,26.8138633 L206.280702,26.6345991 C206.017254,25.7183595 199.694507,4.16681137 190.572626,-5.13501208 C188.201596,-7.55507964 187.78447,-13.2915361 189.35418,-21.3285506 L213.503563,-18.2213033 L280.210745,-0.693241996 L281.692639,-5.32423547 L214.798848,-22.9220107 L190.440902,-26.0690944 C194.052333,-39.8226471 201.209332,-53.6658319 203.415707,-54.6617445 C208.465124,-56.6535696 240.089838,-73.7035929 241.440008,-74.42065 L239.881276,-76.7909219 C239.562943,-76.6116576 207.082023,-59.1035146 202.208238,-57.1913624 C198.069912,-55.5580658 190.70435,-39.025917 187.422229,-26.4575003 L182.910685,-27.0450887 C186.489185,-40.8783144 193.723023,-54.9306409 195.940375,-55.9265534 C201.000769,-57.9183786 232.625484,-74.9684019 233.964677,-75.6854589 L232.416921,-78.0557309 C232.087611,-77.8764666 199.617668,-60.3683235 194.732906,-58.4561714 C190.572626,-56.8129156 183.130225,-40.0716252 179.892013,-27.4733312 L164.524223,-29.4651563 L139.935761,-21.5576105 L115.237528,-22.553523 L100.638128,-31.5167362 C91.9223961,-36.8448685 81.9772411,-42.9697308 72.0211091,-49.0647158 L81.0881047,-54.7513766 L118.201316,-105.542918 L116.829192,-116 L111.560235,-115.43233 L112.657935,-106.738013 L77.1912724,-58.1773159 L67.3119794,-51.9528623 C44.0736866,-66.264126 1.60840777,-93.8750908 -0.0820490458,-95.2594092 C0.0681189893,-95.1304835 0.197461594,-94.982959 0.302145685,-94.8212077 L-4.26428312,-92.3513445 C-3.79227245,-91.6342875 17.5313192,-76.8108401 57.8937199,-51.932944 L63.4371011,-48.5169639 L35.6543335,-15.9805 L4.40283639,1.43801092 C0.29744126,-2.02776485 -3.57743703,-5.22464422 -7.01323562,-8.06299506 C-8.65978447,-9.42739528 -10.2404714,-10.7220816 -11.6894343,-11.937095 L17.3666643,-34.8430842 L17.5313192,-34.8729616 L31.0659507,-52.9388157 L20.3853372,-60.1791001 L18.6290184,-57.9382968 L26.9715326,-52.2715543 L20.5829231,-43.7365835 L14.3699454,-51.1262548 L11.9550071,-49.4531217 L18.7826963,-41.3364342 L15.3029898,-36.6855225 L14.2052905,-35.8489559 L5.54444359,-48.9551654 L2.94289641,-47.5409696 L11.8781682,-34.0164768 L-13.9067868,-13.7297376 C-15.7218833,-15.1939771 -17.4443563,-16.75008 -19.0659732,-18.3906085 C-24.4776304,-24.6548986 -36.0034723,-43.0494038 -36.1132423,-43.2884229 L-42.0627721,-40.2309712 C-41.5797844,-39.4541594 -30.1637124,-21.2389184 -24.4337224,-14.6160998 C-22.7761966,-12.6939885 -18.3195377,-9.01907113 -11.5796644,-3.45191983 C-8.63783049,-1.02189315 -5.25691685,1.77662119 -1.6125554,4.8340728 L-31.3711816,21.4259763 L-36.1022653,26.8736181 C-45.5754096,12.930842 -52.3811449,3.08126667 -53.0178104,2.64306513 L-54.8399911,4.85399105 C-54.9030686,4.80877274 -54.9618215,4.75879932 -55.015623,4.70460416 C-54.1813716,5.59096636 -47.2658664,15.6596425 -38.1110549,29.1940944 L-50.3613783,43.3061756 L-61.1956697,47.5686814 L-59.9882005,50.0982994 L-54.3130955,47.8674552 L-76.8159298,73.7611822 L-72.6446727,76.7489199 L-44.0496077,43.7941728 L-32.260318,39.1532202 L-31.6016984,38.7648142 C-22.9957364,51.5124952 -13.3689142,65.8337181 -5.20203189,78.023688 L-18.8793643,81.2404856 L-79.2528221,119.23455 L-76.2341492,123.218201 L-53.9398778,109.185792 L-37.891515,133.904343 L-29.4392309,148.843031 L-59.307627,153.583575 C-60.3394643,151.263099 -62.9629655,145.387215 -65.7291675,139.541208 C-73.1825453,123.765953 -74.3021985,123.606607 -75.3889208,123.407424 L-75.9267934,126.116306 C-76.0959312,126.096865 -76.255663,126.034756 -76.3878271,125.937042 C-74.8071402,127.21181 -68.1660598,140.955404 -62.3702079,154.071572 L-82.6666667,157.278411 L-82.139771,159.997252 L-61.5030255,156.7207 L-58.8795243,169.797032 L-42.9189775,180.632561 L-57.2549295,229.820683 L-54.3240725,230.517822 L-40.1527754,181.937206 L0.988991776,196.776303 L-0.0538224941,202.034722 L-37.3755964,273.411776 L-34.6313483,274.586953 L2.83312649,202.881248 L3.84300978,197.812053 L23.8211358,205.0125 C7.46541724,228.018081 -16.0033923,265.703413 -17.3425854,267.854584 L-14.6971302,269.199066 C-14.2690275,268.511886 27.6191751,201.267869 38.6290984,190.920338 C34.3431491,197.770866 30.5126573,204.847842 27.1581415,212.113357 C11.2415026,235.138856 -8.65978447,267.09769 -9.87823062,269.059638 L-7.24375246,270.414079 C-6.96932765,269.975878 9.8144936,243.026484 24.929812,220.618451 C24.6663642,223.207823 24.3260774,225.886828 23.9967677,228.506078 C22.4709657,240.357438 21.0329797,251.541536 26.0165343,258.054804 C31.5928464,265.334925 60.8026229,294.475327 62.043023,295.720218 L67.0924395,291.547344 C66.7960607,291.24857 36.9496186,261.470784 31.6257773,254.519315 C28.1131398,249.928158 29.4303789,239.401362 30.7805489,229.223135 C31.1976746,225.97646 31.6257773,222.610276 31.8782482,219.393478 C32.2185349,215.409828 37.849732,205.092174 44.9738,193.230855 C45.5268676,192.630122 46.1207832,192.061343 46.7520727,191.527844 C53.8212558,185.831224 80.4953471,164.01078 99.6831297,147.25953 C100.540647,148.956058 101.227665,150.719335 101.735827,152.527908 C102.49324,156.113193 97.2681914,176.270464 93.0749803,192.473961 C84.2933865,226.334989 80.4843701,242.817342 83.3383881,247.607681 C84.2494785,249.151346 86.6314858,252.706754 89.8257906,257.437338 L65.4239367,280.761611 L67.6193351,282.663804 L91.4613624,259.857406 C98.0475578,269.448044 107.191392,282.703641 115.039942,293.977371 C113.140922,295.859646 111.933453,297.024863 111.626097,297.263882 L111.691959,297.263882 L113.426324,299.524604 C113.667818,299.365258 114.842356,298.249836 116.719422,296.417357 C124.1728,307.103499 130.078421,315.538878 130.715087,316.445159 L136.478008,313.118811 C136.313353,312.879792 129.716181,303.468418 121.494413,291.656895 C132.120142,281.00063 151.044477,261.689885 165.051119,247.368662 L195.512273,272.137008 C185.63298,282.544295 170.26519,298.379304 168.486918,299.464849 C168.563628,299.409468 168.654049,299.371868 168.750365,299.355299 L169.606571,301.994467 C170.287144,301.815203 171.044557,301.61602 185.160969,287.055778 C190.440902,281.618096 195.643997,276.170454 197.773533,273.929651 L236.116167,305.101714 L238.146911,303.050134 L215.446491,284.605834 L238.388405,264.080075 L251.626657,275.333887 L254.733146,272.34615 L221.099642,243.743541 L221.000849,243.653908 L201.099562,230.487944 L211.72529,220.718042 L248.706777,253.294342 L250.81436,251.302517 L211.714313,216.814065 L198.651692,228.765015 L177.795407,206.934612 L192.526531,198.678497 L208.530986,199.216289 L217.905337,195.023497 L227.576067,190.701237 L255.929638,206.944571 L257.543256,204.614135 L227.740722,187.59399 L220.858148,190.671359 L252.087691,144.391302 C258.267738,158.971462 264.239222,172.705097 264.294106,172.854483 L267.12617,171.858571 C267.049332,171.699225 260.177734,155.864215 253.536654,140.148714 C244.030579,117.64109 241.626617,111.048149 241.088745,109.155915 L253.712286,102.363791 L267.685997,143.943141 L270.583923,143.136452 L256.401649,100.919718 L283.888038,86.100539 Z M252.05476,100.043315 L220.693493,116.914074 L207.652826,101.567061 L224.337854,96.5377028 L230.188591,83.252229 C231.824163,84.2481416 232.866977,84.8755665 233.064563,85.0149943 C233.9537,85.5727053 244.370865,93.8786162 252.032806,100.023397 L252.05476,100.043315 Z M227.608998,81.6488098 L222.043663,94.2869403 L202.636341,100.132947 L218.00413,118.318311 L214.041436,120.439605 L198.530946,128.785352 L198.245544,128.934739 L193.163196,135.667108 L181.088505,139.820063 L178.410119,141.313932 L158.783256,88.1521189 C167.09284,80.8919162 175.457308,74.4384027 182.559422,70.5244663 C186.905392,68.1112599 190.720374,64.9877115 193.810839,61.312275 C201.94479,66.222124 218.882289,76.3704731 227.608998,81.6488098 Z M110.550352,137.589219 C113.863508,134.71018 116.931227,131.607314 119.727118,128.307314 C124.117915,122.282043 139.825991,105.022878 156.313433,90.2833718 L175.698801,142.787883 L129.990605,168.213531 L110.550352,137.589219 Z M4.83093909,177.33609 L-17.4084473,166.301379 L-15.6850596,162.317728 L6.04938523,171.231146 L4.83093909,177.33609 Z M6.87265966,167.068231 L6.60921184,168.402754 L-14.5654063,159.728356 L-12.6663867,155.366259 L7.34467033,158.642811 L6.87265966,167.068231 Z M-9.77943769,148.733481 C-2.78709358,149.191601 4.83093909,150.167595 7.78375002,151.143589 L7.5203022,155.874174 L-11.5028255,152.756968 L-9.77943769,148.733481 Z M-0.525833164,146.831288 C-3.81893086,146.432923 -7.11202855,146.173986 -8.98909424,146.034558 L-5.69599654,129.273349 L8.79363331,131.922477 L7.87156596,148.315198 C5.12113859,147.615843 2.31283884,147.119586 -0.525833164,146.831288 Z M14.8419561,78.34238 L56.2581481,68.602355 C56.9716526,69.8572049 57.6741801,71.1020956 58.3547536,72.3469863 L57.6083181,78.1531566 L33.7004289,97.9419395 C25.5884316,96.8663539 16.7629297,95.5915858 13.9418427,95.0039974 L14.8419561,78.34238 Z M16.2031031,47.7877822 C16.1482182,47.7180683 10.4511592,41.3541869 4.71019217,35.1197742 C1.34025553,31.4448568 -1.39301556,28.5367921 -3.41278214,26.4652939 C-4.51048137,25.2901171 -5.42157174,24.4236732 -6.11312225,23.7862891 L9.61690774,14.5043839 C24.8749271,27.9193263 41.5819094,44.0929465 50.1549404,58.1552321 C51.3843635,60.1470572 52.5918327,62.1388824 53.7663708,64.1904623 L15.1602889,73.2831441 L16.5653439,48.1961063 L16.2031031,47.7877822 Z M158.904003,17.6713859 C155.41332,17.28298 147.367184,16.3966178 145.314487,16.1177623 C145.048363,15.764917 144.809939,15.3955168 144.600982,15.0122993 L160.890839,2.85220677 L158.904003,17.6713859 Z M144.414373,18.7768489 C145.819428,19.0059087 156.576881,20.1910447 158.530785,20.4001864 L156.576881,34.9703873 L150.056547,39.6412173 L144.326557,34.5421449 L115.281436,47.1902346 L109.529492,39.4619531 L113.261669,38.3863675 L142.186044,16.7949828 C143.349605,18.627462 143.931386,18.7270532 144.359488,18.7967671 L144.414373,18.7768489 Z M88.8378613,61.9396999 L100.506404,75.095705 L96.6973878,77.8145463 L83.579882,65.1266201 L88.8378613,61.9396999 Z M102.888411,73.3926945 L91.5272244,60.5852588 L114.282529,50.626133 L121.351713,60.127139 L102.888411,73.3926945 Z M88.3329196,58.9121257 L66.0606022,72.4167002 C64.897041,70.265529 63.7005489,68.1043987 62.4821027,65.9631867 L99.255027,42.4297725 L106.510819,40.328397 L112.515234,48.3952889 L88.3329196,58.9121257 Z M80.9673578,66.7101211 L94.2495185,79.5673525 L76.2692051,92.4345429 L75.3361607,90.9207558 C72.9651304,85.7420104 70.2757673,80.3441643 67.3997953,74.936359 L80.9673578,66.7101211 Z M96.335147,81.5790959 L96.9059506,82.1268478 L96.9827896,82.2065208 L128.881929,104.236107 C119.749072,113.518012 112.504257,121.754209 109.738055,125.568554 C107.004395,128.75291 104.014105,131.74887 100.791806,134.531768 C93.4152671,120.768256 82.7675845,103.041012 77.7401221,94.814774 L96.335147,81.5790959 Z M130.912673,102.174568 L99.0245102,80.1549409 L98.7281314,79.8661262 L135.105884,53.8429306 L152.921542,81.7284828 C145.358395,88.1222415 137.696454,95.3426077 130.912673,102.15465 L130.912673,102.174568 Z M123.689812,58.5038015 L116.993847,49.5405883 L143.667938,37.9282477 L147.597701,41.4239008 L123.689812,58.5038015 Z M110.671099,34.0939843 L106.444957,35.2990385 L98.2451437,24.2742863 C111.208972,17.7311407 124.897281,10.8593439 136.664617,4.96354143 C137.915994,8.06082954 138.958808,10.4510197 139.825991,12.3133762 L110.671099,34.0939843 Z M103.415307,36.1854007 L96.8291117,38.0776346 L59.9683715,61.6708035 C58.6950404,59.4797958 57.3997553,57.3186655 56.1044702,55.1874126 C54.8091851,53.0561597 53.1187283,50.5763374 51.3843635,48.2160246 C56.43378,45.4374285 74.8092651,36.0858094 95.5448036,25.6187683 L103.415307,36.1854007 Z M92.9322794,23.8261256 C62.9211824,38.9739559 53.0528663,44.1128648 49.7048837,45.9752213 C46.312993,41.6031651 42.4381148,37.1713541 38.2668577,32.7793797 L76.8070777,0.422180088 L93.8433698,23.3281693 L92.9322794,23.8261256 Z M60.8575079,76.918225 C64.0188817,82.8339457 66.8399687,88.5504839 69.265884,93.8487388 L63.3931931,103.967211 L58.3437766,129.313186 L53.7553938,131.832844 L60.8575079,76.918225 Z M85.2593618,120.588991 C89.1342401,127.291483 92.7786015,133.784833 95.6655505,139.222516 C85.3471777,148.394871 71.3295585,160.216353 59.4414759,170.095806 C60.637968,168.233449 61.8015292,166.40097 62.9321594,164.628246 C76.1045502,143.943141 84.2385015,131.016196 85.1825228,126.315489 C85.491828,124.411794 85.5176724,122.479015 85.2593618,120.569073 L85.2593618,120.588991 Z M102.174907,137.220731 C107.191392,132.639534 110.868685,129.014412 112.262763,127.10226 C117.114593,120.439605 135.852319,100.003479 154.150966,84.4572832 L155.248665,87.4450209 C138.168465,102.572933 121.72493,120.60891 117.191432,126.823404 C115.555861,129.084126 110.440582,133.944179 103.612893,140.029205 L102.174907,137.220731 Z M188.300389,-3.3224512 C196.489225,5.05317357 202.636341,24.9714251 203.29496,27.1325554 C203.18519,29.6522142 201.582549,56.8207092 180.934827,68.1940309 C173.964437,72.0282943 165.808531,78.262707 157.67458,85.3038089 L156.576881,82.4057033 C162.271196,77.5424204 168.444045,73.1620623 175.018228,69.3194121 C197.993073,56.6713224 198.816347,27.0329641 198.838301,25.7781143 L198.838301,25.5789317 L198.783416,25.3996675 C198.519969,24.4834279 192.197221,2.93187978 183.064363,-6.36994368 C180.726264,-8.77009298 180.287184,-14.4069582 181.802009,-22.3045449 L186.313553,-21.7169565 C184.568211,-12.6840294 185.215854,-6.48945319 188.300389,-3.34236945 L188.300389,-3.3224512 Z M39.287718,-12.2259096 L67.882783,-45.7084904 C83.8103988,-35.9087107 97.5206622,-27.5131677 97.6962941,-27.4135764 L113.547071,-17.7034288 L140.770012,-16.6477615 L165.106004,-24.4656752 L178.827244,-22.7029099 C177.103856,-13.7396967 177.729545,-7.66463003 180.836034,-4.53746454 C189.02487,3.8282011 195.171986,23.7464526 195.819628,25.9075829 C195.720835,28.4272417 194.118195,55.5957368 173.459495,66.9690584 C166.958671,70.7565025 160.848855,75.0697861 155.204757,79.8561671 L137.509845,52.1000836 L159.386991,36.4443379 L164.227845,0.332547957 L165.138935,-0.334713469 L167.191632,-10.6922043 L161.966584,-11.5486891 L160.232219,-2.93404529 L142.27386,10.470938 C141.176161,8.04091129 139.946738,5.17268307 138.892946,2.50363737 L138.278235,0.979891131 L136.719502,1.75670294 C136.510939,1.86625332 116.960916,11.6461148 96.4998019,21.9737282 L77.3339733,-3.78057098 L36.2470911,30.668045 C27.4106123,21.5654041 17.5093652,12.7416186 8.42041557,4.92370493 L39.287718,-12.2259096 Z M-27.7926821,25.1506893 L2.41600078,8.31976681 C4.04059564,9.70408529 5.70909847,11.1182812 7.3776013,12.5822726 L-30.6357231,35.0002647 L-33.1384773,31.3153882 L-27.7926821,25.1506893 Z M-33.6983039,36.8327439 L-40.0869135,39.3424435 L-35.1472669,33.6458236 C-34.4996244,34.6417362 -33.8519818,35.5579758 -33.1933623,36.5339701 L-33.6983039,36.8327439 Z M-29.0550362,37.3705366 L-8.71466943,25.4195857 C-5.65208858,28.0985906 6.02743125,40.886108 13.480809,49.2119372 L12.086731,74.1097516 L-2.183359,77.4560178 C-11.0966768,63.9912798 -20.6576371,49.7796073 -29.0550362,37.3307001 L-29.0550362,37.3705366 Z M11.8013292,79.1092327 L8.99121917,129.183717 L-6.88151171,126.275652 L-18.2207448,128.436783 L-10.3063333,106.526706 L-18.5720085,87.0267377 L-16.6290809,85.7918061 L11.8013292,79.1092327 Z M-21.1296477,88.640116 L-13.5225921,106.566542 L-21.6455664,129.044289 L-35.7619785,131.733253 L-51.4041925,107.652087 L-21.1296477,88.640116 Z M-34.3020385,134.292749 L-8.81346236,129.452613 L-12.1065601,146.144108 L-26.2668801,148.374952 L-34.3020385,134.292749 Z M-58.5392376,156.252621 L-28.9013583,151.561873 L-30.9430789,163.313641 L-41.6017384,178.102943 L-56.1352762,168.293204 L-58.5392376,156.252621 Z M-38.9343293,179.427506 L-28.0451529,164.309554 L-25.7729155,151.053957 L-13.1932823,149.062132 L-21.2174637,167.496474 L4.26013549,180.244155 L1.50491041,194.057462 L-38.9343293,179.427506 Z M9.88035555,167.476556 L10.8133999,150.824897 L11.6147203,150.526123 C11.4537087,150.171819 11.2015244,149.857645 10.8792619,149.609884 L11.9769611,129.900774 L11.9769611,129.691632 L12.4489718,121.246294 L33.0966943,124.403337 L33.6016359,121.684495 L12.6246036,118.497575 L13.7881648,97.8025117 C16.6531598,98.4199775 22.3941268,99.246585 34.0077847,100.790249 L34.7212892,100.879882 L57.1033765,82.3559077 L50.4622961,133.993975 L16.43362,180.851661 L12.7782815,198.080949 L4.35892842,195.043416 L9.88035555,167.476556 Z M37.2899054,188.211455 C34.8639901,190.20328 30.604917,195.541372 25.4896386,202.62231 L15.6871845,199.166494 L19.3315459,181.957124 L52.9979814,135.547598 L61.0880247,131.065992 L66.3020961,104.923287 L70.7477779,97.2448007 C76.411906,110.24146 79.3866709,120.539196 78.4316726,125.239903 C77.6632831,129.114003 66.6862908,146.343291 56.9936066,161.550876 C51.9112591,169.518176 47.2460374,176.887929 43.1296653,183.540625 C40.5830031,185.582246 38.5742135,187.215543 37.2899054,188.211455 Z M49.7926996,185.343227 C51.3294785,182.863405 52.8991884,180.363664 54.4579213,177.893801 C67.2022094,167.376964 84.5458573,152.876477 97.0266976,141.79197 C97.5243212,142.754686 97.9853549,143.670925 98.4097986,144.540689 C82.4053438,158.563138 60.5830831,176.579196 49.8036766,185.373105 L49.7926996,185.343227 Z M89.3867109,244.669739 C89.1342401,244.022396 88.6183214,240.865353 91.6479713,226.743313 C93.579922,217.7801 96.390032,206.825061 99.1672111,196.059246 L118.44281,199.226248 L118.980682,196.507407 L99.8587616,193.420078 C105.819268,170.354743 109.419722,155.983724 108.453747,151.36269 C107.583495,148.365838 106.39993,145.451194 104.919155,142.658414 L107.202369,140.616793 L129.156354,175.125164 L143.591099,177.485477 L157.861189,192.424166 L94.7434831,252.776468 C92.109005,248.962122 90.1990083,246.034139 89.3976879,244.699617 L89.3867109,244.669739 Z M147.059829,206.735429 L175.259722,232.748666 L164.831579,243.424849 L134.480195,218.756094 L147.059829,206.735429 Z M119.836888,289.20695 C111.823683,277.684241 102.613987,264.408727 96.357101,255.206494 L132.394567,220.757878 L162.811813,245.486388 C147.059829,261.620171 129.771066,279.227906 119.847865,289.20695 L119.836888,289.20695 Z M195.578135,231.872263 L218.157808,246.810951 L236.236914,262.197801 L213.251092,282.763395 L167.147724,245.267287 L178.519889,233.61511 L179.46391,232.619197 L149.200342,204.733645 L159.880956,194.525541 L195.358595,231.692998 L195.578135,231.872263 Z M163.141122,191.637395 L174.502309,182.405285 L189.68349,197.055159 L175.731732,204.873073 L163.141122,191.637395 Z M207.883343,196.487489 L192.811933,195.979573 L174.721849,178.561062 L161.121356,189.516101 L145.962129,173.681091 L132.021349,171.400451 L131.516407,170.603721 L182.394767,142.299886 L195.117101,137.937789 L200.408011,130.9664 L215.314767,122.9991 L235.172146,164.209962 L215.7758,192.971917 L207.883343,196.487489 Z M250.693613,141.094831 L237.071166,161.321816 L217.916314,121.564986 L238.366451,110.609947 L238.761622,111.775165 C239.376334,113.498094 240.320355,115.977916 241.593686,119.154877 C243.7342,124.473051 246.796781,131.852763 250.70459,141.094831 L250.693613,141.094831 Z M158.366131,151.691341 L155.841422,153.145374 L143.876501,135.796576 L146.445117,134.332585 L158.366131,151.691341 Z M185.720795,54.7591702 L169.826111,41.1550044 L176.137881,25.8777055 L178.980922,26.8736181 L173.40461,40.3781926 L187.795447,52.7673451 L185.720795,54.7591702 Z" id="Shape" fill="#FFFFFF" fill-rule="nonzero" mask="url(#mask-2)"></path>
                </g>
                <path d="M126.133333,81.8596491 L118.995667,81.8596491 C119.355,80.8207018 119.6,79.7322807 119.6,78.5614035 C119.6,73.102807 115.206333,68.6666667 109.8,68.6666667 C106.386333,68.6666667 103.381,70.4312281 101.633333,73.102807 L100,75.345614 L98.3666667,73.102807 C96.619,70.4312281 93.6136667,68.6666667 90.2,68.6666667 C84.7936667,68.6666667 80.4,73.102807 80.4,78.5614035 C80.4,79.7322807 80.6286667,80.8207018 81.0043333,81.8596491 L73.8666667,81.8596491 C70.257,81.8596491 67.366,84.8115789 67.366,88.4561404 L67.3333333,124.736842 C67.3333333,128.381404 70.257,131.333333 73.8666667,131.333333 L126.133333,131.333333 C129.743,131.333333 132.666667,128.381404 132.666667,124.736842 L132.666667,88.4561404 C132.666667,84.8115789 129.743,81.8596491 126.133333,81.8596491 Z M109.8,75.2631579 C111.596667,75.2631579 113.066667,76.7473684 113.066667,78.5614035 C113.066667,80.3754386 111.596667,81.8596491 109.8,81.8596491 C108.003333,81.8596491 106.533333,80.3754386 106.533333,78.5614035 C106.533333,76.7473684 108.003333,75.2631579 109.8,75.2631579 Z M90.2,75.2631579 C91.9966667,75.2631579 93.4666667,76.7473684 93.4666667,78.5614035 C93.4666667,80.3754386 91.9966667,81.8596491 90.2,81.8596491 C88.4033333,81.8596491 86.9333333,80.3754386 86.9333333,78.5614035 C86.9333333,76.7473684 88.4033333,75.2631579 90.2,75.2631579 Z M126.133333,124.736842 L73.8666667,124.736842 L73.8666667,118.140351 L126.133333,118.140351 L126.133333,124.736842 Z M126.133333,108.245614 L73.8666667,108.245614 L73.8666667,88.4561404 L90.4613333,88.4561404 L83.6666667,97.8066667 L88.975,101.649123 L96.7333333,90.9792982 L100,86.4936842 L103.266667,90.9792982 L111.025,101.649123 L116.333333,97.8066667 L109.538667,88.4561404 L126.133333,88.4561404 L126.133333,108.245614 Z" id="Shape" fill="url(#linearGradient-3)"></path>
            </g>
        </g>
    </g>
</svg>