<?xml version="1.0" encoding="UTF-8"?>
<svg width="24px" height="24px" viewBox="0 0 24 24" version="1.1" xmlns="http://www.w3.org/2000/svg" xmlns:xlink="http://www.w3.org/1999/xlink">
    <title>D083C8AF-0F99-465F-805D-327BEC59485C</title>
    <g id="Page-1" stroke="none" stroke-width="1" fill="none" fill-rule="evenodd" opacity="1">
        <g id="16C---Give-Us-Feedback" transform="translate(-20.000000, -168.000000)">
            <g id="01" transform="translate(0.000000, 100.000000)">
                <g id="ic_unhappy" transform="translate(20.000000, 68.000000)">
                    <polygon id="Path" points="0 0 24 0 24 24 0 24"></polygon>
                    <path d="M12,22 C6.477,22 2,17.523 2,12 C2,6.477 6.477,2 12,2 C17.523,2 22,6.477 22,12 C22,17.523 17.523,22 12,22 Z M12,20 C16.418278,20 20,16.418278 20,12 C20,7.581722 16.418278,4 12,4 C7.581722,4 4,7.581722 4,12 C4,16.418278 7.581722,20 12,20 Z M7.43636386,16.0826473 C8.81526911,13.3608824 10.3364812,12 12,12 C13.6635188,12 15.1847309,13.3608824 16.5636361,16.0826473 C16.7212957,16.3939333 16.5968003,16.774103 16.2855323,16.9317982 C16.1970299,16.9766354 16.0992122,17 16,17 L15.6314128,17 C15.2544692,16.9999926 14.9095525,16.7880287 14.739271,16.4517392 C13.9116397,14.8172464 12.9985494,14 12,14 C11.0014409,14 10.0883425,14.8172623 9.26070481,16.4517869 C9.09038789,16.788043 8.74548407,17 8.36855432,17 L8,17 C7.65106516,17 7.36819759,16.7171324 7.36819759,16.3681976 C7.36819759,16.2689854 7.3915622,16.1711677 7.43636386,16.0826473 Z M8,11 C7.17157288,11 6.5,10.3284271 6.5,9.5 C6.5,8.67157288 7.17157288,8 8,8 C8.82842712,8 9.5,8.67157288 9.5,9.5 C9.5,10.3284271 8.82842712,11 8,11 Z M16,11 C15.1715729,11 14.5,10.3284271 14.5,9.5 C14.5,8.67157288 15.1715729,8 16,8 C16.8284271,8 17.5,8.67157288 17.5,9.5 C17.5,10.3284271 16.8284271,11 16,11 Z" id="Shape" fill="currentColor" fill-rule="nonzero"></path>
                </g>
            </g>
        </g>
    </g>
</svg>